Study notes
…
There are no common (intersecting) variables across the datasets. But perhaps some variables are in more than one table.

lahmanNames %>%  
  # Bind the data frames in lahmanNames
  bind_rows() %>%
  # Group the result by var
  group_by(var) %>%
  # Tally the number of appearances
  tally() %>%
  # Filter the data
  filter(n > 1) %>% 
  # Arrange the results
  arrange(desc(n))

## # A tibble: 59 x 2
##         var     n
##       <chr> <int>
##  1   yearID    21
##  2 playerID    19
##  3     lgID    17
##  4   teamID    13
##  5        G    10
##  6        L     6
##  7        W     6
##  8       BB     5
##  9       CS     5
## 10       GS     5
## # ... with 49 more rows
…
So a large number of players played a game but are missing salary information. Interestingly, 193 players neither played a game nor have a recorded salary. Perhaps the unsalaried players only played one or two games, and hence did not earn a full salary.

players %>% 
  # Find all players who do not appear in Salaries
  anti_join(Salaries, by = "playerID") %>% 
  # Join them to Appearances
  left_join(Appearances, by = "playerID") %>% 
  # Calculate total_games for each player
  group_by(playerID) %>%
  summarise(total_games = sum(G_all, na.rm = T)) %>%
  # Arrange in descending order by total_games
  arrange(desc(total_games))

## # A tibble: 13,958 x 2
##     playerID total_games
##        <chr>       <int>
##  1 yastrca01        3308
##  2 aaronha01        3298
##  3  cobbty01        3034
##  4 musiast01        3026
##  5  mayswi01        2992
##  6 robinbr01        2896
##  7 kalinal01        2834
##  8 collied01        2824
##  9 robinfr02        2808
## 10 wagneho01        2795
## # ... with 13,948 more rows
…
Is it possible that the unsalaried players did not actually play in the games that they appeared in? One way to check would be to determine if the players had an at-bat (i.e. batted) in the games that they appeared in.

players %>%
  # Find unsalaried players
  anti_join(Salaries, by = "playerID") %>% 
  # Join Batting to the unsalaried players
  left_join(Batting, by = "playerID") %>% 
  # Group by player
  group_by(playerID) %>% 
  # Sum at-bats for each player
  summarise(total_at_bat = sum(AB, na.rm = T)) %>% 
  # Arrange in descending order
  arrange(desc(total_at_bat))

## # A tibble: 13,958 x 2
##     playerID total_at_bat
##        <chr>        <int>
##  1 aaronha01        12364
##  2 yastrca01        11988
##  3  cobbty01        11434
##  4 musiast01        10972
##  5  mayswi01        10881
##  6 robinbr01        10654
##  7 wagneho01        10430
##  8 brocklo01        10332
##  9 ansonca01        10277
## 10 aparilu01        10230
## # ... with 13,948 more rows
…
players <- Appearances %>% 
  # Filter Appearances against nominated
  semi_join(nominated, by = "playerID") %>% 
  # Find last year played by player
  group_by(playerID) %>% 
  summarize(last_year = max(yearID, na.rm = T)) %>% 
  # Join to full HallOfFame
  left_join(HallOfFame, by = "playerID") %>% 
  # Filter for unusual observations
  filter((yearID - last_year) < 5 ) 

players

## # A tibble: 194 x 10
##     playerID last_year yearID votedBy ballots needed votes inducted
##        <chr>     <int>  <int>   <chr>   <int>  <int> <int>   <fctr>
##  1 altroni01      1933   1937   BBWAA     201    151     3        N
##  2 applilu01      1950   1953   BBWAA     264    198     2        N
##  3 bartedi01      1946   1948   BBWAA     121     91     1        N
##  4  beckro01      2004   2008   BBWAA     543    408     2        N
##  5 boudrlo01      1952   1956   BBWAA     193    145     2        N
##  6 camildo01      1945   1948   BBWAA     121     91     1        N
##  7 chandsp01      1947   1950   BBWAA     168    126     2        N
##  8 chandsp01      1947   1951   BBWAA     226    170     1        N
##  9 chapmbe01      1946   1949   BBWAA     153    115     1        N
## 10 cissebi01      1938   1937   BBWAA     201    151     1        N
## # ... with 184 more rows, and 2 more variables: category <fctr>,
## #   needed_note <chr>

players %>%
  group_by(playerID) %>%
  tally() %>%
  # Arrange the results
  arrange(desc(n))

## # A tibble: 92 x 2
##     playerID     n
##        <chr> <int>
##  1  deandi01     9
##  2 dickebi01     7
##  3  foxxji01     6
##  4 lyonste01     6
##  5 greenha01     5
##  6 ruffire01     5
##  7 cronijo01     4
##  8 dimagjo01     4
##  9 gehrich01     4
## 10  hackst01     4
## # ... with 82 more rows
…
Appearances %>% 
  # Filter Appearances against nominated
  semi_join(nominated, by = "playerID") %>% 
  # Find last year played by player
  group_by(playerID) %>% 
  summarize(last_year = max(yearID, na.rm = T)) %>% 
  # Join to full HallOfFame
  left_join(HallOfFame, by = "playerID") %>% 
  # Filter for unusual observations
  filter(yearID <= last_year) %>%
  # look for the most recent incident of nomination before reirement
  arrange(desc(yearID))

## # A tibble: 39 x 10
##     playerID last_year yearID votedBy ballots needed votes inducted
##        <chr>     <int>  <int>   <chr>   <int>  <int> <int>   <fctr>
##  1 francju02      2014   2013   BBWAA     569    427     6        N
##  2  rijojo01      2002   2001   BBWAA     515    387     1        N
##  3 stephjo03      2002   1979   BBWAA     432    324     0        N
##  4 minosmi01      1980   1969   BBWAA     340    255     6        N
##  5 spahnwa01      1965   1958   BBWAA     266    200     1        N
##  6 rizzuph01      1956   1956   BBWAA     193    145     1        N
##  7 paigesa01      1965   1951   BBWAA     226    170     1        N
##  8 waltebu01      1950   1950   BBWAA     168    126     4        N
##  9 medwijo01      1948   1948   BBWAA     121     91     1        N
## 10  deandi01      1947   1947   BBWAA     161    121    88        N
## # ... with 29 more rows, and 2 more variables: category <fctr>,
## #   needed_note <chr>
…
